<svg width="61" height="44" viewBox="0 0 61 44" fill="none" xmlns="http://www.w3.org/2000/svg">
<path d="M0.613134 21.671L21.5841 0.700001L27.2261 6.342L15.4861 18.082H60.4501V26.06H15.4871L27.2271 37.799L21.5841 43.441L0.613134 22.469C0.508695 22.3625 0.450195 22.2192 0.450195 22.07C0.450195 21.9208 0.508695 21.7775 0.613134 21.671V21.671Z" fill="#40587C"/>
</svg>
