<svg width="768" height="1024" viewBox="0 0 768 1024" fill="none" xmlns="http://www.w3.org/2000/svg">
<path d="M40 157.8V152.9C40 148.2 42.6 145.9 47.8 145.9H90V139.2L47.8 142.9C42.6 143.6 40 141.6 40 136.9V132C40 127.3 42.6 124.6 47.8 123.9V80.5C42.6 80.5 40 78.2 40 73.5V68.6C40 63.9 42.6 61.6 47.8 61.6H124.4C129.6 61.6 132.2 63.9 132.2 68.6V73.5C132.2 78.2 129.6 80.5 124.4 80.5V145.9H201C206.2 145.9 208.8 148.2 208.8 152.9V157.8C208.8 162.5 206.2 164.8 201 164.8H145.5V171.1H193.2C198.4 171.1 201 173.4 201 178.1V180.9C201 185.6 198.4 187.9 193.2 187.9H145.5V194.2H201C206.2 194.2 208.8 196.5 208.8 201.2V206.1C208.8 210.8 206.2 213.1 201 213.1H47.8C42.6 213.1 40 210.8 40 206.1V201.2C40 196.5 42.6 194.2 47.8 194.2H103.3V187.9H55.6C50.4 187.9 47.8 185.6 47.8 180.9V178.1C47.8 173.4 50.4 171.1 55.6 171.1H103.3V164.8H47.8C42.6 164.9 40 162.5 40 157.8ZM82.2 86.8H90V80.5H82.2V86.8ZM82.2 103.7H90V97.4H82.2V103.7ZM82.2 120.9L90 120.2V114.2H82.2V120.9ZM200.9 67.8C206.1 67.8 208.7 70.1 208.7 74.8V132.5C208.7 137.2 206.1 139.5 200.9 139.5H140C134.8 139.5 132.2 137.2 132.2 132.5V74.9C132.2 70.2 134.8 67.9 140 67.9H200.9V67.8ZM174.4 93.2H166.6V114.3H174.4V93.2Z" fill="white"/>
<path d="M220 98.8V93.9C220 89.2 222.6 86.9 227.8 86.9H265.3C270.5 86.9 273.1 89.2 273.1 93.9V98.8C273.1 103.5 270.5 105.8 265.3 105.8H227.8C222.6 105.8 220 103.5 220 98.8ZM220 169.8C220 165.1 222.6 162.8 227.8 162.8H265.3C270.5 162.8 273.1 165.1 273.1 169.8V206.4C273.1 211.1 270.5 213.4 265.3 213.4H227.8C222.6 213.4 220 211.1 220 206.4V169.8ZM223.9 73.5V68.6C223.9 63.9 226.5 61.6 231.7 61.6H261.4C266.6 61.6 269.2 63.9 269.2 68.6V73.5C269.2 78.2 266.6 80.5 261.4 80.5H231.7C226.5 80.5 223.9 78.2 223.9 73.5ZM223.9 124.1V119.2C223.9 114.5 226.5 112.2 231.7 112.2H261.4C266.6 112.2 269.2 114.5 269.2 119.2V124.1C269.2 128.8 266.6 131.1 261.4 131.1H231.7C226.5 131.1 223.9 128.8 223.9 124.1ZM223.9 149.4V144.5C223.9 139.8 226.5 137.5 231.7 137.5H261.4C266.6 137.5 269.2 139.8 269.2 144.5V149.4C269.2 154.1 266.6 156.4 261.4 156.4H231.7C226.5 156.4 223.9 154.1 223.9 149.4ZM242.7 184.6V191.6H250.5V184.6H242.7ZM273.3 206.4L281.1 168.1L274.5 157.2C271.8 152.5 273 150.2 278.2 150.2H284.8L287.3 137.5H280.9C275.7 137.5 273.1 135.2 273.1 130.5V121.4C273.1 118.2 273.7 115.2 275.1 112.3L286.6 87H280.9C275.7 87 273.1 84.7 273.1 80V68.5C273.1 63.8 275.7 61.5 280.9 61.5H315.3C317.9 61.5 319.2 63.8 319.2 68.5V76.6C319.2 80.1 318.5 83.5 317.1 86.8L305.6 112.1H311.5C316.7 112.1 319.3 114.4 319.3 119.1V124.4C319.3 128.7 318.8 133.1 317.9 137.4L311.6 168L323.9 188H380.9C386.1 188 388.7 190.3 388.7 195V206.3C388.7 211 386.1 213.3 380.9 213.3H316.4C311.2 213.3 307.2 211 304.5 206.3L303.9 205.4L303.7 206.3C302.7 211 299.5 213.3 294.3 213.3H279.5C274.4 213.4 272.3 211 273.3 206.4ZM323.1 83.5V72.2C323.1 67.5 325.7 64.8 330.9 64.1L380.9 58.1C386.1 57.4 388.7 59.4 388.7 64.1V75.4C388.7 80.1 386.1 82.8 380.9 83.5L377 84V105.8H380.9C386.1 105.8 388.7 108.1 388.7 112.8V124.1C388.7 128.8 386.1 131.1 380.9 131.1H377V156.4H380.9C386.1 156.4 388.7 158.7 388.7 163.4V174.7C388.7 179.4 386.1 181.7 380.9 181.7H330.9C325.7 181.7 323.1 179.4 323.1 174.7V103C323.1 98.3 325.7 96 330.9 96H334C339.2 96 341.8 98.3 341.8 103V156.4H346.5V87.5L330.9 89.4C325.7 90.2 323.1 88.2 323.1 83.5Z" fill="white"/>
<path d="M430.5 100.9C425.3 100.9 422.7 98.6 422.7 93.9V93.2H407.9C402.7 93.2 400.1 90.9 400.1 86.2V65C400.1 60.3 402.7 58 407.9 58H434.5C439.7 58 442.3 60.3 442.3 65V67.8H472.8C478 67.8 480.6 70.1 480.6 74.8V86.1C480.6 90.8 478 93.1 472.8 93.1H461.1V93.8C461.1 98.5 458.5 100.8 453.3 100.8H430.5V100.9ZM446.1 183.2C446.1 178.5 448.7 176.2 453.9 176.2H472.7C477.9 176.2 480.5 178.5 480.5 183.2V206.4C480.5 211.1 477.9 213.4 472.7 213.4H407.9C402.7 213.4 400.1 211.1 400.1 206.4V112.1C400.1 107.4 402.7 105.1 407.9 105.1H472.7C477.9 105.1 480.5 107.4 480.5 112.1V165.5C480.5 170.2 477.9 172.5 472.7 172.5H434.4V188H446.1V183.2ZM434.4 130.4H446.1V124.1H434.4V130.4ZM434.4 153.6H446.1V147.3H434.4V153.6ZM488.3 86.1V65C488.3 60.3 490.9 58 496.1 58H522.7C527.9 58 530.5 60.3 530.5 65V67.8H561C566.2 67.8 568.8 70.1 568.8 74.8V86.1C568.8 90.8 566.2 93.1 561 93.1H549.3V93.8C549.3 98.5 546.7 100.8 541.5 100.8H518.8C513.6 100.8 511 98.5 511 93.8V93.1H496.2C490.9 93.2 488.3 90.8 488.3 86.1ZM488.3 206.4V112.1C488.3 107.4 490.9 105.1 496.1 105.1H560.9C566.1 105.1 568.7 107.4 568.7 112.1V193.7C568.7 198.4 566.1 200.7 560.9 200.7H534.3C529.1 200.7 526.5 198.4 526.5 193.7V182.4C526.5 177.7 529.1 175.4 534.3 175.4V130.4H522.6V206.3C522.6 211 520 213.3 514.8 213.3H496C490.9 213.4 488.3 211 488.3 206.4Z" fill="white"/>
<path d="M40.6 247.1L43.32 248.66L45.46 244.16L43.32 242.94L40.6 247.1ZM48.22 242.94L45.5 247.1L48.22 248.66L50.36 244.16L48.22 242.94ZM57.537 243H51.957V257H57.537C62.217 257 65.197 254.26 65.197 250C65.197 245.76 62.217 243 57.537 243ZM57.537 252.88H56.457V247.12H57.537C59.617 247.12 60.697 248.32 60.697 250C60.697 251.7 59.617 252.88 57.537 252.88ZM73.5831 242.76C69.3831 242.76 66.2031 245.88 66.2031 250C66.2031 254.14 69.3831 257.26 73.5831 257.26C77.7831 257.26 80.9631 254.14 80.9631 250C80.9631 245.88 77.7831 242.76 73.5831 242.76ZM73.5831 252.88C71.9231 252.88 70.7031 251.7 70.7031 250C70.7031 248.32 71.9231 247.12 73.5831 247.12C75.2431 247.12 76.4631 248.32 76.4631 250C76.4631 251.7 75.2431 252.88 73.5831 252.88ZM101.435 243H96.5155L94.1555 248.06L91.7955 243H86.8555L91.8955 251.74V257H96.3955V251.74L101.435 243ZM107.9 242.76C103.7 242.76 100.52 245.88 100.52 250C100.52 254.14 103.7 257.26 107.9 257.26C112.1 257.26 115.28 254.14 115.28 250C115.28 245.88 112.1 242.76 107.9 242.76ZM107.9 252.88C106.24 252.88 105.02 251.7 105.02 250C105.02 248.32 106.24 247.12 107.9 247.12C109.56 247.12 110.78 248.32 110.78 250C110.78 251.7 109.56 252.88 107.9 252.88ZM125.041 243V250.86C125.041 252.16 124.361 252.88 123.161 252.88C121.941 252.88 121.261 252.16 121.261 250.86V243H116.781V251.34C116.781 255.5 119.341 257.26 123.161 257.26C126.961 257.26 129.541 255.5 129.541 251.34V243H125.041ZM151.458 243L149.678 250.44L147.678 243H144.538L142.538 250.44L140.778 243H135.938L140.078 257H144.098L146.118 249.54L148.118 257H152.138L156.278 243H151.458ZM165.273 257H170.113L165.433 243H159.953L155.273 257H160.113L160.713 254.84H164.673L165.273 257ZM161.573 251.72L162.693 247.66L163.813 251.72H161.573ZM179.577 243V250.08L175.177 243H171.117V257H175.617V249.92L180.017 257H184.077V243H179.577ZM194.538 243V250.08L190.138 243H186.078V257H190.578V249.92L194.978 257H199.038V243H194.538ZM210.039 257H214.879L210.199 243H204.719L200.039 257H204.879L205.479 254.84H209.439L210.039 257ZM206.339 251.72L207.459 247.66L208.579 251.72H206.339ZM230.853 249.66V249.62C231.933 249.08 232.593 248.18 232.593 246.78C232.593 244.12 230.633 243 226.773 243H221.273V257H227.313C231.173 257 233.113 255.72 233.113 252.86C233.113 251.24 232.253 250.22 230.853 249.66ZM226.593 246.24C227.533 246.24 228.033 246.56 228.033 247.3C228.033 248.04 227.533 248.38 226.593 248.38H225.773V246.24H226.593ZM227.133 253.6H225.773V251.42H227.133C228.053 251.42 228.573 251.76 228.573 252.5C228.573 253.24 228.053 253.6 227.133 253.6ZM242.776 243V250.86C242.776 252.16 242.096 252.88 240.896 252.88C239.676 252.88 238.996 252.16 238.996 250.86V243H234.516V251.34C234.516 255.5 237.076 257.26 240.896 257.26C244.696 257.26 247.276 255.5 247.276 251.34V243H242.776ZM249.281 243V257H253.781V243H249.281ZM260.285 252.88V243H255.785V257H265.505V252.88H260.285ZM272.478 243H266.898V257H272.478C277.158 257 280.138 254.26 280.138 250C280.138 245.76 277.158 243 272.478 243ZM272.478 252.88H271.398V247.12H272.478C274.558 247.12 275.638 248.32 275.638 250C275.638 251.7 274.558 252.88 272.478 252.88ZM296.035 257H300.875L296.195 243H290.715L286.035 257H290.875L291.475 254.84H295.435L296.035 257ZM292.335 251.72L293.455 247.66L294.575 251.72H292.335ZM313.35 248.24C312.27 247.94 311.23 247.88 311.23 247.2C311.23 246.72 311.65 246.4 312.45 246.4C313.21 246.4 313.75 246.78 313.91 247.34L317.61 246.44C317.11 243.98 314.87 242.76 312.41 242.76C309.33 242.76 306.91 244.56 306.91 247.3C306.91 250.18 308.79 251.08 311.35 251.7C312.75 252.04 313.61 252.08 313.61 252.78C313.61 253.32 313.03 253.62 312.25 253.62C311.19 253.62 310.27 253.08 310.19 252.36L306.47 253.52C307.05 256.32 309.83 257.26 312.47 257.26C316.27 257.26 318.11 255.06 318.11 252.54C318.11 250.18 316.77 249.18 313.35 248.24ZM327.761 243V250.08L323.361 243H319.301V257H323.801V249.92L328.201 257H332.261V243H327.761ZM341.142 242.76C336.942 242.76 333.762 245.88 333.762 250C333.762 254.14 336.942 257.26 341.142 257.26C345.342 257.26 348.522 254.14 348.522 250C348.522 245.88 345.342 242.76 341.142 242.76ZM341.142 252.88C339.482 252.88 338.262 251.7 338.262 250C338.262 248.32 339.482 247.12 341.142 247.12C342.802 247.12 344.022 248.32 344.022 250C344.022 251.7 342.802 252.88 341.142 252.88ZM364.153 243L362.373 250.44L360.373 243H357.233L355.233 250.44L353.473 243H348.633L352.773 257H356.793L358.813 249.54L360.813 257H364.833L368.973 243H364.153ZM381.605 243L378.205 248.96L374.805 243H369.965V257H374.465V249.64L377.585 255.04H378.825L381.945 249.64V257H386.445V243H381.605ZM397.441 257H402.281L397.601 243H392.121L387.441 257H392.281L392.881 254.84H396.841L397.441 257ZM393.741 251.72L394.861 247.66L395.981 251.72H393.741ZM411.745 243V250.08L407.345 243H403.285V257H407.785V249.92L412.185 257H416.245V243H411.745ZM422.826 252.96C421.646 252.96 420.666 253.92 420.666 255.1C420.666 256.3 421.646 257.26 422.826 257.26C424.006 257.26 424.966 256.3 424.966 255.1C424.966 253.92 424.006 252.96 422.826 252.96ZM422.806 242.76C420.126 242.76 418.186 244.12 417.646 246.78L421.526 247.74C421.566 247.32 421.806 246.76 422.486 246.76C422.926 246.76 423.266 246.96 423.266 247.48C423.266 248.46 420.826 249.18 420.826 251.94H424.826C424.826 249.98 427.766 249.34 427.766 246.7C427.766 244.38 426.286 242.76 422.806 242.76ZM435.784 242.94L433.664 247.44L435.804 248.66L438.504 244.5L435.784 242.94ZM428.764 247.44L430.904 248.66L433.604 244.5L430.904 242.94L428.764 247.44ZM40.6 267.1L43.32 268.66L45.46 264.16L43.32 262.94L40.6 267.1ZM48.22 262.94L45.5 267.1L48.22 268.66L50.36 264.16L48.22 262.94ZM58.837 272.88C57.177 272.88 55.957 271.7 55.957 270C55.957 268.32 57.177 267.12 58.837 267.12C59.817 267.12 60.637 267.52 61.157 268.2L64.877 265.74C63.577 263.92 61.397 262.76 58.837 262.76C54.637 262.76 51.457 265.88 51.457 270C51.457 274.14 54.637 277.26 58.837 277.26C61.397 277.26 63.577 276.1 64.877 274.26L61.157 271.8C60.637 272.48 59.817 272.88 58.837 272.88ZM72.1573 262.76C67.9573 262.76 64.7773 265.88 64.7773 270C64.7773 274.14 67.9573 277.26 72.1573 277.26C76.3573 277.26 79.5373 274.14 79.5373 270C79.5373 265.88 76.3573 262.76 72.1573 262.76ZM72.1573 272.88C70.4973 272.88 69.2773 271.7 69.2773 270C69.2773 268.32 70.4973 267.12 72.1573 267.12C73.8173 267.12 75.0373 268.32 75.0373 270C75.0373 271.7 73.8173 272.88 72.1573 272.88ZM92.6791 263L89.2791 268.96L85.8791 263H81.0391V277H85.5391V269.64L88.6591 275.04H89.8991L93.0191 269.64V277H97.5191V263H92.6791ZM104.016 273.24V271.56H108.556V268.32H104.016V266.76H109.196V263H99.5156V277H109.376V273.24H104.016ZM123.251 262.76C119.051 262.76 115.871 265.88 115.871 270C115.871 274.14 119.051 277.26 123.251 277.26C127.451 277.26 130.631 274.14 130.631 270C130.631 265.88 127.451 262.76 123.251 262.76ZM123.251 272.88C121.591 272.88 120.371 271.7 120.371 270C120.371 268.32 121.591 267.12 123.251 267.12C124.911 267.12 126.131 268.32 126.131 270C126.131 271.7 124.911 272.88 123.251 272.88ZM140.593 263V270.08L136.193 263H132.133V277H136.633V269.92L141.033 277H145.093V263H140.593ZM156.984 272.88V263H152.484V277H162.204V272.88H156.984ZM168.098 273.24V271.56H172.638V268.32H168.098V266.76H173.278V263H163.598V277H173.458V273.24H168.098ZM185.503 263H174.463V267.12H177.723V277H182.223V267.12H185.503V263ZM187.094 263V268.18H190.114V263H187.094ZM198.193 268.24C197.113 267.94 196.073 267.88 196.073 267.2C196.073 266.72 196.493 266.4 197.293 266.4C198.053 266.4 198.593 266.78 198.753 267.34L202.453 266.44C201.953 263.98 199.713 262.76 197.253 262.76C194.173 262.76 191.753 264.56 191.753 267.3C191.753 270.18 193.633 271.08 196.193 271.7C197.593 272.04 198.453 272.08 198.453 272.78C198.453 273.32 197.873 273.62 197.093 273.62C196.033 273.62 195.113 273.08 195.033 272.36L191.313 273.52C191.893 276.32 194.673 277.26 197.313 277.26C201.113 277.26 202.953 275.06 202.953 272.54C202.953 270.18 201.613 269.18 198.193 268.24ZM216.055 268.9V271.8H218.955C218.495 272.66 217.615 273.06 216.415 273.06C214.735 273.06 213.515 271.8 213.515 270C213.515 268.32 214.735 267.12 216.415 267.12C217.375 267.12 218.195 267.52 218.715 268.2L222.455 265.74C221.135 263.9 218.955 262.76 216.415 262.76C212.215 262.76 209.035 265.88 209.035 270C209.035 274.14 212.215 277.26 216.415 277.26C218.355 277.26 219.855 276.6 220.895 275.52L221.295 277H223.295V268.9H216.055ZM231.982 262.76C227.782 262.76 224.602 265.88 224.602 270C224.602 274.14 227.782 277.26 231.982 277.26C236.182 277.26 239.362 274.14 239.362 270C239.362 265.88 236.182 262.76 231.982 262.76ZM231.982 272.88C230.322 272.88 229.102 271.7 229.102 270C229.102 268.32 230.322 267.12 231.982 267.12C233.642 267.12 234.862 268.32 234.862 270C234.862 271.7 233.642 272.88 231.982 272.88ZM255.254 277H260.094L255.414 263H249.934L245.254 277H250.094L250.694 274.84H254.654L255.254 277ZM251.554 271.72L252.674 267.66L253.794 271.72H251.554ZM269.558 263V270.08L265.158 263H261.098V277H265.598V269.92L269.998 277H274.058V263H269.558ZM281.639 263H276.059V277H281.639C286.319 277 289.299 274.26 289.299 270C289.299 265.76 286.319 263 281.639 263ZM281.639 272.88H280.559V267.12H281.639C283.719 267.12 284.799 268.32 284.799 270C284.799 271.7 283.719 272.88 281.639 272.88ZM302.115 263H296.195V277H300.695V273.2H302.115C305.655 273.2 308.035 271.66 308.035 268.2C308.035 264.96 305.975 263 302.115 263ZM302.115 269.44H300.695V266.94H302.115C303.055 266.94 303.495 267.46 303.495 268.2C303.495 268.94 303.055 269.44 302.115 269.44ZM313.938 272.88V263H309.438V277H319.158V272.88H313.938ZM329.551 277H334.391L329.711 263H324.231L319.551 277H324.391L324.991 274.84H328.951L329.551 277ZM325.851 271.72L326.971 267.66L328.091 271.72H325.851ZM346.982 263H342.062L339.702 268.06L337.342 263H332.402L337.442 271.74V277H341.942V271.74L346.982 263ZM350.133 272.96C348.953 272.96 347.973 273.92 347.973 275.1C347.973 276.3 348.953 277.26 350.133 277.26C351.313 277.26 352.273 276.3 352.273 275.1C352.273 273.92 351.313 272.96 350.133 272.96ZM351.813 271.94L352.273 263H347.973L348.433 271.94H351.813ZM360.901 262.94L358.781 267.44L360.921 268.66L363.621 264.5L360.901 262.94ZM353.881 267.44L356.021 268.66L358.721 264.5L356.021 262.94L353.881 267.44Z" fill="white"/>
<line x1="524" y1="790" x2="726" y2="790" stroke="white" stroke-width="2"/>
<line x1="524" y1="968" x2="726" y2="968" stroke="white" stroke-width="2"/>
<path d="M539.28 829.76C544.36 824.6 546.48 822.24 546.48 818.6C546.48 813.72 543.16 809.52 536.2 809.52C530.6 809.52 526 812.88 525.2 818.28L533.48 820.16C533.48 819.04 534.12 817.88 535.56 817.88C536.88 817.88 537.48 818.76 537.48 819.84C537.48 820.8 535.84 822.44 533.64 824.76C530.96 827.64 527.92 830.72 525.96 832.6V838H546.64V829.76H539.28ZM561.898 809.52C553.498 809.52 549.258 816.16 549.258 824C549.258 831.84 553.498 838.52 561.898 838.52C570.298 838.52 574.498 831.84 574.498 824C574.498 816.16 570.298 809.52 561.898 809.52ZM561.898 830.12C559.178 830.12 557.898 827.4 557.898 824C557.898 820.64 559.178 817.88 561.898 817.88C564.618 817.88 565.898 820.64 565.898 824C565.898 827.4 564.618 830.12 561.898 830.12ZM589.983 829.76C595.063 824.6 597.183 822.24 597.183 818.6C597.183 813.72 593.863 809.52 586.903 809.52C581.303 809.52 576.703 812.88 575.903 818.28L584.183 820.16C584.183 819.04 584.823 817.88 586.263 817.88C587.583 817.88 588.183 818.76 588.183 819.84C588.183 820.8 586.543 822.44 584.343 824.76C581.663 827.64 578.623 830.72 576.663 832.6V838H597.343V829.76H589.983ZM612.601 809.52C604.201 809.52 599.961 816.16 599.961 824C599.961 831.84 604.201 838.52 612.601 838.52C621.001 838.52 625.201 831.84 625.201 824C625.201 816.16 621.001 809.52 612.601 809.52ZM612.601 830.12C609.881 830.12 608.601 827.4 608.601 824C608.601 820.64 609.881 817.88 612.601 817.88C615.321 817.88 616.601 820.64 616.601 824C616.601 827.4 615.321 830.12 612.601 830.12ZM630.886 829.92C628.526 829.92 626.606 831.84 626.606 834.2C626.606 836.6 628.526 838.52 630.886 838.52C633.286 838.52 635.206 836.6 635.206 834.2C635.206 831.84 633.286 829.92 630.886 829.92ZM678.646 810L669.166 816.36L672.806 822.28L676.846 819.56V838H685.846V810H678.646ZM703.733 829.76C708.813 824.6 710.933 822.24 710.933 818.6C710.933 813.72 707.613 809.52 700.653 809.52C695.053 809.52 690.453 812.88 689.653 818.28L697.933 820.16C697.933 819.04 698.573 817.88 700.013 817.88C701.333 817.88 701.933 818.76 701.933 819.84C701.933 820.8 700.293 822.44 698.093 824.76C695.413 827.64 692.373 830.72 690.413 832.6V838H711.093V829.76H703.733Z" fill="white"/>
<path d="M569.84 917.28C585.08 901.8 591.44 894.72 591.44 883.8C591.44 869.16 581.48 856.56 560.6 856.56C543.8 856.56 530 866.64 527.6 882.84L552.44 888.48C552.44 885.12 554.36 881.64 558.68 881.64C562.64 881.64 564.44 884.28 564.44 887.52C564.44 890.4 559.52 895.32 552.92 902.28C544.88 910.92 535.76 920.16 529.88 925.8V942H591.92V917.28H569.84ZM641.893 888.96C637.213 888.96 632.773 889.92 628.693 891.84L629.773 882.72H660.613V858H609.013L603.493 905.04L622.813 909.12C625.573 906.96 628.693 905.88 632.413 905.88C637.453 905.88 639.613 908.76 639.613 913.2C639.613 917.28 638.413 921.12 633.613 921.12C629.173 921.12 627.373 917.52 627.133 914.04L599.773 919.92C602.293 934.92 616.693 943.56 635.413 943.56C655.573 943.56 668.173 932.4 668.173 915.12C668.173 899.4 659.293 888.96 641.893 888.96Z" fill="white"/>
<path d="M698.12 889.56L706 889.56L706 870L678 870L678 878.96L687 878.96L687 888.4L694.24 888.4L694.24 878.96L698.12 878.96L698.12 889.56ZM678 908.653L678 918.413L688.44 912.493C689.92 914.973 692.4 916.453 695.96 916.453C702.44 916.453 706 912.333 706 904.613L706 892.773L678 892.773L678 901.773L686.64 901.773L686.64 904.293L678 908.653ZM698.12 901.773L698.12 904.613C698.12 906.453 697.44 907.373 695.96 907.373C694.48 907.373 693.84 906.453 693.84 904.613L693.84 901.773L698.12 901.773ZM706 920.43L678 920.43L678 929.43L706 929.43L706 920.43ZM686.08 936.917C686.08 934.557 684.16 932.637 681.8 932.637C679.4 932.637 677.48 934.557 677.48 936.917C677.48 939.317 679.4 941.237 681.8 941.237C684.16 941.237 686.08 939.317 686.08 936.917Z" fill="white"/>
<path d="M58.52 935V950.72C58.52 953.32 57.16 954.76 54.76 954.76C52.32 954.76 50.96 953.32 50.96 950.72V935H42V951.68C42 960 47.12 963.52 54.76 963.52C62.36 963.52 67.52 960 67.52 951.68V935H58.52ZM88.6113 947.52H83.6113V942.56H76.4913V947.52H71.5313V954.64H76.4913V959.64H83.6113V954.64H88.6113V947.52ZM100.505 935L91.025 941.36L94.665 947.28L98.705 944.56V963H107.705V935H100.505ZM132.263 942.88V935H112.703V963H121.663V954H131.103V946.76H121.663V942.88H132.263ZM152.597 948.48C155.077 947.24 156.477 945.2 156.477 942.56C156.477 937.6 152.557 934.52 145.917 934.52C139.797 934.52 135.877 937.4 135.077 941.88L143.557 943.8C143.677 942.68 144.437 942 145.597 942C146.717 942 147.597 942.56 147.597 943.72C147.597 944.84 146.717 945.28 145.597 945.28H142.157V952H145.597C146.957 952 147.597 952.72 147.597 953.68C147.597 954.88 146.957 955.68 145.597 955.68C144.197 955.68 143.317 954.88 143.197 953.68L134.077 955.64C134.917 960.64 139.957 963.52 145.917 963.52C152.557 963.52 157.197 960.88 157.197 955.08C157.197 951.72 155.437 949.64 152.597 948.48ZM167.693 935L158.213 941.36L161.853 947.28L165.893 944.56V963H174.893V935H167.693ZM199.451 942.88V935H179.891V963H188.851V954H198.291V946.76H188.851V942.88H199.451Z" fill="white"/>
<path d="M652.448 141.238C649.112 139.379 649.007 134.618 652.258 132.614L668.392 122.667C669.066 122.252 669.631 121.682 670.042 121.006L679.818 104.905C681.716 101.779 686.218 101.682 688.25 104.723L699.246 121.188C699.62 121.747 700.102 122.225 700.664 122.593L715.755 132.483C718.925 134.561 718.722 139.272 715.384 141.068L698.819 149.981C697.956 150.445 697.249 151.153 696.785 152.015L688.159 168.047C686.299 171.502 681.366 171.567 679.416 168.161L670.108 151.9C669.656 151.11 668.997 150.459 668.202 150.016L652.448 141.238Z" fill="white"/>
<path d="M47.4477 870.434C44.1118 868.575 44.0068 863.814 47.2575 861.81L56.7329 855.969C57.4066 855.553 57.9722 854.984 58.3829 854.307L64.2112 844.708C66.1094 841.582 70.6118 841.485 72.643 844.526L79.2976 854.49C79.6709 855.049 80.1529 855.527 80.715 855.895L89.5421 861.68C92.7123 863.757 92.5084 868.469 89.1707 870.265L79.5014 875.467C78.6389 875.931 77.9316 876.639 77.4675 877.501L72.5521 886.637C70.6927 890.092 65.7591 890.157 63.8097 886.751L58.4488 877.386C57.9968 876.596 57.3379 875.945 56.5431 875.502L47.4477 870.434Z" fill="white"/>
</svg>
